7 Converting ATN netCDF file to Darwin Core – BioDataGuide
…
7.1.2 Collect all the metadata from the netCDF file.

This gathers not only the global attributes, but the variable level attributes as well. As you can see in the variable column the term NC_GLOBAL refers to global attributes.

metadata <- ncmeta::nc_atts(file_nc)
metadata

# A tibble: 381 × 4
      id name                  variable  value       
   <int> <chr>                 <chr>     <named list>
 1     0 long_name             deploy_id <chr [1]>   
 2     1 comment               deploy_id <chr [1]>   
 3     2 coordinates           deploy_id <chr [1]>   
 4     3 instrument            deploy_id <chr [1]>   
 5     4 platform              deploy_id <chr [1]>   
 6     5 coverage_content_type deploy_id <chr [1]>   
 7     6 _FillValue            deploy_id <dbl [1]>   
 8     0 units                 time      <chr [1]>   
 9     1 standard_name         time      <chr [1]>   
10     2 axis                  time      <chr [1]>   
# ℹ 371 more rows
…
