Chapter 2 Applications | Darwin Core Guide
…
## Error in match.names(clabs, names(xi)): names do not match previous names

Let’s check to see what it looks like

head(measurementOrFact, n = 50)

## # A tibble: 50 x 9
##    eventID occurrenceID measurementType measurementType~ measurementValue
##    <chr>   <chr>        <chr>           <chr>                       <dbl>
##  1 St. Jo~ ""           temperature     ""                           25.2
##  2 St. Jo~ ""           temperature     ""                           25.2
##  3 St. Jo~ ""           temperature     ""                           25.2
##  4 St. Jo~ ""           temperature     ""                           25.2
##  5 St. Jo~ ""           temperature     ""                           24.8
##  6 St. Jo~ ""           temperature     ""                           24.8
##  7 St. Jo~ ""           temperature     ""                           24.8
##  8 St. Jo~ ""           temperature     ""                           24.8
##  9 St. Jo~ ""           temperature     ""                           23.1
## 10 St. Jo~ ""           temperature     ""                           23.1
## # ... with 40 more rows, and 4 more variables: measurementUnit <chr>,
## #   measurementUnitID <chr>, measurementDeterminedDate <date>,
## #   measurementMethod <chr>
…
